Buchungstag,Valuta,Auftraggeber/Zahlungsempfänger,Empfänger/Zahlungspflichtiger,Konto-Nr.,IBAN,BLZ,BIC,Vorgang/Verwendungszweck,Kundenreferenz,Währung,Umsatz,sign
16.09.2019,16.09.2019,A1,E1,,DE01123456789123456789,,BIC1,V1,,EUR,"10,12",S
16.09.2019,16.09.2019,A1,E2,,DE01123456789123456789,,BIC2,V2,,EUR,"303,13",S
13.09.2019,13.09.2019,A1,E3,,DE01123456789123456789,,BIC3,V3,,EUR,"8,21",S
11.09.2019,11.09.2019,A1,E4,,DE01123456789123456789,,BIC4,V4,,EUR,"181,98",S
10.09.2019,10.09.2019,A1,E5,,DE01123456789123456789,,BIC5,V5,,EUR,"4,99",S
06.09.2019,06.09.2019,A1,E6,,DE01123456789123456789,,BIC6,V6,,EUR,"107,17",S
05.09.2019,05.09.2019,A1,E7,,DE01123456789123456789,,BIC7,V7,,EUR,"626,12",S
02.09.2019,02.09.2019,A1,E8,,DE01123456789123456789,,BIC8,V8,,EUR,1000,H
02.09.2019,02.09.2019,A1,E9,,DE01123456789123456789,,BIC9,V9,,EUR,"4,5",H
02.09.2019,02.09.2019,A1,E10,,DE01123456789123456789,,BIC10,V10,,EUR,"1,6",H
02.09.2019,02.09.2019,A1,E11,,DE01123456789123456789,,BIC11,V11,,EUR,1000,H
02.09.2019,02.09.2019,A1,E12,,DE01123456789123456789,,BIC12,V12,,EUR,500,H
02.09.2019,02.09.2019,A1,E13,,DE01123456789123456789,,BIC13,V13,,EUR,100,S
02.09.2019,02.09.2019,A1,E14,,DE01123456789123456789,,BIC14,V14,,EUR,100,S
02.09.2019,02.09.2019,A1,E14,,DE01123456789123456789,,BIC15,V15,,EUR,"400,5",S
02.09.2019,02.09.2019,A1,E15,,DE01123456789123456789,,BIC16,V16,,EUR,5,S
