"Amount","Payee","Date"
-$7.41,"Burger King",2011-02-01
-$38.52,"Friendly's",2011-02-03
-$6.46,"Burger King",2011-02-04
-$12.70,"Domino's",2011-02-05
-$32.48,"Friendly's",2011-02-07
-$4.20,"Burger King",2011-02-08
-$4.20,"Burger King",2011-02-09
-$5.24,"Burger King",2011-02-09
-$8.35,"Burger King",2011-02-10