date,inflation,correction
2018,2599,1
2017,2568,"1,0120716511"
2016,2543,"1,0220212348"
2015,2538,"1,024034673"
2014,2537,"1,024438313"
2013,2524,"1,0297147385"
2012,2503,"1,0383539752"
2011,2455,"1,0586558045"
2010,2404,"1,0811148087"
2009,2368,"1,0975506757"
2008,2366,"1,0984784446"
2007,2301,"1,1295089092"
2006,2267,"1,1464490516"
2005,2231,"1,1649484536"
2004,2190,"1,1867579909"
2003,2145,"1,2116550117"
2002,2102,"1,2364414843"
2001,2061,"1,2610383309"
2000,2028,"1,2815581854"
1999,1995,"1,3027568922"
1998,1985,"1,3093198992"
1997,1972,"1,3179513185"
1996,1949,"1,3335043612"
1995,1911,"1,3600209314"
1994,1876,"1,3853944563"
1993,1845,"1,4086720867"
1992,1807,"1,4382955174"
1991,1766,"1,4716874292"
1990,1711,"1,5189947399"
1989,1655,"1,5703927492"
1988,1597,"1,6274264245"
1987,1555,"1,6713826367"
1986,1508,"1,7234748011"
1985,1469,"1,7692307692"
1984,1388,"1,8724783862"
1983,1292,"2,0116099071"
1982,1179,"2,2044105174"
1981,1054,"2,4658444023"
1980,930,"2,7946236559"
